{
  "twilioSMS": {
    "accountSid": "ACecd161f0ff875c37ebb0345cbd4f653b",
    "authToken": "0a40ded9c4fcf98f256b2a9ebe5afd53",
    "from": "+12676134401",
    "ConfirmMessage": "歡迎使用Muzky, 您的驗證碼為:%s",
    "ConfirmContent": "親愛的用戶您好，您的Muzky新密碼為 %s,請到「忘記密碼」>「重設密碼」設定您的新密碼。",
    "RandomMin": 100000,
    "RandomMax": 999999
  },

  "twilio": {
    "ACCOUNT_SID": "ACecd161f0ff875c37ebb0345cbd4f653b",
    "API_KEY": "SKb69172501a113b4a82867b79fe005523",
    "API_SECRET": "ZgkiZNfPW9m4LE5oygUl0zOAVjHvP0Bc"
  },

  "Push": {
    "AndroidAPIKey": "AAAA78VK9Ag:APA91bHP1fmZO-mjDVmnX1MW8m_B2H7FSnq3WGoQID0cKTGpW3EZeEDA7UnP2ESHrIEa5-LYgutoOZdIyvofQ0DnDU2NCfFQO_xLhMglZ8jp17iZzkOp8JN8p85aERW4YBMIUP8m87eB"
  },

  "PushContent": {
    "CourseDelByMember": "%s課程已結束",
    "CourseJoinByOwner": "%s參加了你的課程-%s",
    "CourseRejectMember": "課程%s已將你踢除",
    "CourseInviteMember": "%s邀請你參加課程-%s",

    "ToMemberMessage": "%s: %s",
    "SystemToMemberMessage": "Muzky: %s"
  },

  "Google": {
    "APIKey": "AIzaSyDfL2q85mErTAI3KRd4HUIQ64Pm249qBGE"
  },

  "Mail": {
    "GmailAccount": "muzky961@gmail.com",
    "GmailPassword": "Muzky52650692"
  },

  "MailContent": {
    "ForgetPasswordsubject": "Muzky 忘記密碼協助",
    "ForgetPasswordContent": "<h2>親愛的用戶您好，您的Muzky登入密碼為 %s</h2><br><h2>登入後，記得到「個人設定」>「變更密碼」設定您熟悉的密碼。</h2><br><h2>若您沒有申請此項服務請忽略本信件，並儘速更換密碼。</h2>"

  },

  "MailConfirmContent": {
    "ConfirmContentSubject": "Muzky 忘記密碼協助",
    "ConfirmContent": "<h2>親愛的用戶您好，您的Muzky驗證碼為 %s</h2><br><h2>請到「忘記密碼」>「重設密碼」設定您的新密碼。</h2><br><h2>若您沒有申請此項服務請忽略本信件。</h2>"
  },
  "ConfirmContent": {
    "ConfirmContentSubject": "Muzky 會員驗證信",
    "ConfirmContent": "<h2>親愛的用戶您好，歡迎使用Muzky </h2><br><h2><a href='https://www.muzky.com/member/confirmMember?code=%s&id=%s'>請點擊此連結以完成會員驗證。</a></h2>"
  },
  "MobileConfirmContent": {
    "MobileConfirmContentSubject": "Muzky 會員手機驗證",
    "MobileConfirmContent": "<h2>親愛的用戶您好，您的Muzky手機驗證碼為 %s</h2>"
  },

  "sportDomainName": {
    "domainNameURL": "http://iMuzky.com"
  },

  "geoUnit": {
    "km": "km"
  },

  "team": {
    "teamShareURL": "https://www.muzky.com/share/MuzkyShare.html?actid="
  },

  "memberInfo": {
    "AmazonS3URL": "https://s3-ap-northeast-1.amazonaws.com/Muzky/"
  },

  "StoreURL": {
    "GooglePlayURL": "https://goo.gl/KpRxmO",
    "AppStoreURL": "https://goo.gl/opgsuc"
  },

  "TokenLength": 256,
  "LogSuccessPath": "./log/success/",
  "LogErrorPath": "./log/error/",
  "TimeZone": "Asia/Taipei",
  "DateTimeFormat_YYYYMMDD": "YYYY.MM.DD",
  "DateTimeFormat_YYYYMMDDHHmm": "YYYY.MM.DD HH:mm",
  "DateTimeFormat_YYYYMMDDHHmmss": "YYYY.MM.DD",
  "DateTimeFormat_YYYYMMDDHHmmss2": "YYYY.MM.DD HH:mm:ss",
  "PageNumber": 50
}