{
  "0":   {"ErrCode": 0, "ErrMsg": "成功"},
  "999": {"ErrCode": 999, "ErrMsg": "系統維護中"},

  "100": {"ErrCode": 100, "ErrMsg": "此帳號已在其他裝置登入，目前已將此帳號登出"},
  "101": {"ErrCode": 101, "ErrMsg": "密碼錯誤"},
  "102": {"ErrCode": 102, "ErrMsg": "資料格式錯誤"},
  "103": {"ErrCode": 103, "ErrMsg": "查無資料"},
  "104": {"ErrCode": 104, "ErrMsg": "已有此資料"},
  "105": {"ErrCode": 105, "ErrMsg": "驗證碼錯誤"},
  "106": {"ErrCode": 106, "ErrMsg": "新增時發生問題"},
  "107": {"ErrCode": 107, "ErrMsg": "地址輸入錯誤，無法辨識"},
  "108": {"ErrCode": 108, "ErrMsg": "查無此會員"},
  "109": {"ErrCode": 109, "ErrMsg": "此會員電話尚未驗證"},
  "110": {"ErrCode": 110, "ErrMsg": "此會員尚未驗證"},
  "111": {"ErrCode": 111, "ErrMsg": "此會員已被停權"},

  "200": {"ErrCode": 200, "ErrMsg": "暱稱已被使用"},
  "201": {"ErrCode": 201, "ErrMsg": "信箱已被使用"},
  "202": {"ErrCode": 202, "ErrMsg": "FB已被使用"},
  "203": {"ErrCode": 203, "ErrMsg": "帳號已被使用"},
  "204": {"ErrCode": 204, "ErrMsg": "查無此Email"},
  "205": {"ErrCode": 205, "ErrMsg": "只能一般註冊才能使用"},
  "206": {"ErrCode": 206, "ErrMsg": "手機尚未驗證"},
  "207": {"ErrCode": 207, "ErrMsg": "手機驗證碼錯誤"},
  "208": {"ErrCode": 208, "ErrMsg": "已有相同的手機號碼"},
  "209": {"ErrCode": 209, "ErrMsg": "教師審核必須通過電話號碼驗證"},
  "210": {"ErrCode": 210, "ErrMsg": "電話號碼格式錯誤"},
  "211": {"ErrCode": 211, "ErrMsg": "電話號碼已被使用"},
  "212": {"ErrCode": 212, "ErrMsg": "電子郵件格式錯誤"},
  "213": {"ErrCode": 213, "ErrMsg": "輸入日期格式錯誤"},

  "250": {"ErrCode": 250, "ErrMsg": "輸入參數不可空白"},
  "251": {"ErrCode": 251, "ErrMsg": "Id不可空白"},
  "252": {"ErrCode": 252, "ErrMsg": "輸入參數錯誤"},

  "300": {"ErrCode": 300, "ErrMsg": "輸入舊密碼錯誤"},
  "301": {"ErrCode": 301, "ErrMsg": "已提出試教課程審核,目前審核中"},
  "302": {"ErrCode": 302, "ErrMsg": "您目前已經是老師,不須提出試教課程審核"},
  "303": {"ErrCode": 303, "ErrMsg": "最多只能選取5個音樂類型"},
  "304": {"ErrCode": 304, "ErrMsg": "教學模式必須為S,M,V"},
  "305": {"ErrCode": 305, "ErrMsg": "一週內只能新增一則評論"},
  "306": {"ErrCode": 306, "ErrMsg": "評價星數介於1-5"},
  "307": {"ErrCode": 307, "ErrMsg": "查無此評論"},
  "308": {"ErrCode": 308, "ErrMsg": "此內容文字限300字以內"},
  "309": {"ErrCode": 309, "ErrMsg": "此內容文字限100字以內"},
  "310": {"ErrCode": 310, "ErrMsg": "性別需設定為其他,男或女"},
  "311": {"ErrCode": 311, "ErrMsg": "開課對象必須為M,V"},
  "312": {"ErrCode": 312, "ErrMsg": "此使用者教師資格尚未審核通過"},
  "313": {"ErrCode": 313, "ErrMsg": "必須為待審狀態才可進行審核"},
  "314": {"ErrCode": 314, "ErrMsg": "音樂類別輸入錯誤"},
  "315": {"ErrCode": 315, "ErrMsg": "課程單元數與課程單元陣列數目不同"},
  "316": {"ErrCode": 316, "ErrMsg": "課程單元中有不正確的日期"},
  "317": {"ErrCode": 317, "ErrMsg": "開課日期錯誤"},
  "318": {"ErrCode": 318, "ErrMsg": "該會員已訂閱此老師,不可重複訂閱"},
  "319": {"ErrCode": 319, "ErrMsg": "時段介於0時至24時"},
  "320": {"ErrCode": 320, "ErrMsg": "起始時段不得小於結束時段"},
  "321": {"ErrCode": 321, "ErrMsg": "該課程已收藏"},
  "322": {"ErrCode": 322, "ErrMsg": "該課程已購買"},
  "323": {"ErrCode": 323, "ErrMsg": "查無此課程ID"},
  "324": {"ErrCode": 324, "ErrMsg": "已購買該課程直播錄影"},
  "325": {"ErrCode": 325, "ErrMsg": "查詢購買類型發生錯誤"},
  "326": {"ErrCode": 326, "ErrMsg": "查詢購買金額發生錯誤"},
  "327": {"ErrCode": 327, "ErrMsg": "M幣餘額不足,無法購買"},
  "328": {"ErrCode": 328, "ErrMsg": "查無此課程的老師資料"},
  "329": {"ErrCode": 329, "ErrMsg": "該課程老師已被停權,無法執行此功能"},
  "330": {"ErrCode": 330, "ErrMsg": "必須在開課前72小時才可進行此作業"},
  "331": {"ErrCode": 331, "ErrMsg": "此會員未購買此課程"},
  "332": {"ErrCode": 332, "ErrMsg": "課程人數已額滿"},
  "333": {"ErrCode": 333, "ErrMsg": "查不到交易紀錄檔"},
  "334": {"ErrCode": 334, "ErrMsg": "iOS用戶才可執行此功能"},
  "335": {"ErrCode": 335, "ErrMsg": "iOS用戶不可執行此功能"},
  "336": {"ErrCode": 336, "ErrMsg": "本課程的老師才可執行此功能"},
  "337": {"ErrCode": 337, "ErrMsg": "本課程的老師不可執行此功能"},
  "338": {"ErrCode": 338, "ErrMsg": "已評價本課程,不可重複評價"},
  "339": {"ErrCode": 339, "ErrMsg": "尚未上課不可評價"},
  "340": {"ErrCode": 340, "ErrMsg": "評價星等必須在0~5之間"},
  "341": {"ErrCode": 341, "ErrMsg": "申訴的文件ID無法找到對應資料"},
  "342": {"ErrCode": 342, "ErrMsg": "本課程的學生才可執行此功能"},
  "343": {"ErrCode": 343, "ErrMsg": "超過開課時間10分鐘才可執行此功能"},
  "344": {"ErrCode": 344, "ErrMsg": "該單元已退款"},
  "345": {"ErrCode": 345, "ErrMsg": "只有直播課程才可退款"},
  "346": {"ErrCode": 346, "ErrMsg": "該單元已結束,不可執行此功能"},
  "347": {"ErrCode": 347, "ErrMsg": "一對一直播才可執行此功能"},
  "348": {"ErrCode": 348, "ErrMsg": "老師才可執行此功能"},
  "349": {"ErrCode": 349, "ErrMsg": "必須設定購買金額及回饋M幣數才可啟用優惠"},
  "350": {"ErrCode": 350, "ErrMsg": "尚未收藏該課程"},
  "351": {"ErrCode": 351, "ErrMsg": "尚未訂閱此老師"},
  "352": {"ErrCode": 352, "ErrMsg": "該課程尚未審核,不可進行修改"},
  "353": {"ErrCode": 353, "ErrMsg": "VIP課程僅限VIP購買"},
  "354": {"ErrCode": 354, "ErrMsg": "老師尚未按下開始"},
  "355": {"ErrCode": 355, "ErrMsg": "課程名稱重複"},
  "356": {"ErrCode": 356, "ErrMsg": "審核不通過必須輸入評語"},
  "357": {"ErrCode": 357, "ErrMsg": "修改課程時不可改為VIP"},
  "358": {"ErrCode": 358, "ErrMsg": "目前已有相同名稱的音樂類別"},
  "359": {"ErrCode": 359, "ErrMsg": "音樂類別名稱不可超過6碼"},
  "360": {"ErrCode": 360, "ErrMsg": "最高管理員才可執行此功能"},
  "361": {"ErrCode": 361, "ErrMsg": "影片教學不可退費"},
  "362": {"ErrCode": 362, "ErrMsg": "一對多直播才可執行此功能"},
  "363": {"ErrCode": 363, "ErrMsg": "老師尚未按下[準備開始]"},
  "364": {"ErrCode": 364, "ErrMsg": "留言不可超過50字"},
  "365": {"ErrCode": 365, "ErrMsg": "本課程的老師或學生才可執行此功能"},
  "366": {"ErrCode": 366, "ErrMsg": "無法取得影片網址"},
  "367": {"ErrCode": 367, "ErrMsg": "非審核員不可執行此功能"},
  "368": {"ErrCode": 368, "ErrMsg": "影片類型錯誤"},
  "369": {"ErrCode": 369, "ErrMsg": "影片課程不可修改"},
  "370": {"ErrCode": 370, "ErrMsg": "產生課程暫存檔發生錯誤"},
  "371": {"ErrCode": 371, "ErrMsg": "查無此帳號"},
  "372": {"ErrCode": 372, "ErrMsg": "定價不可低於最低價格"},
  "373": {"ErrCode": 373, "ErrMsg": "該會員已經是老師"},
  "381": {"ErrCode": 381, "ErrMsg": "建立課程圖片不可空白"},
  "382": {"ErrCode": 382, "ErrMsg": "課程標題不可空白"},
  "383": {"ErrCode": 383, "ErrMsg": "課程類型不可空白"},
  "384": {"ErrCode": 384, "ErrMsg": "課程音樂類型不可空白"},
  "385": {"ErrCode": 385, "ErrMsg": "課程單元數不可空白"},
  "386": {"ErrCode": 386, "ErrMsg": "試教影片不可空白"},
  "387": {"ErrCode": 387, "ErrMsg": "課程價格不可空白"},
  "388": {"ErrCode": 388, "ErrMsg": "優惠碼重複"},
  "389": {"ErrCode": 389, "ErrMsg": "優惠碼已失效"},
  "390": {"ErrCode": 390, "ErrMsg": "已使用過此優惠碼"},
  "391": {"ErrCode": 391, "ErrMsg": "更新服務條款,隱私權,成為老師及使用M幣注意事項不可全部空白"},
  "392": {"ErrCode": 392, "ErrMsg": "音樂類型已被使用,不可刪除"},
  "393": {"ErrCode": 393, "ErrMsg": "課程單元資料不可空白"},
  "394": {"ErrCode": 394, "ErrMsg": "開課時間不可早於現在"},
  "395": {"ErrCode": 395, "ErrMsg": "騰訊创建录制任务失敗"},
  "396": {"ErrCode": 396, "ErrMsg": "已有會員購買此課程,不可關閉"},
  "397": {"ErrCode": 397, "ErrMsg": "必須在開課前1小時以上才可進行此作業"}
}